PSC/DATS 2102–Summer Schedule - Module 3.1
…
Now search for an indicator we want to use. We will look for something related to GDP per capita.

wb_search("GDP per capita") 

# A tibble: 24 × 3
   indicator_id       indicator                                   indicator_desc
   <chr>              <chr>                                       <chr>         
 1 5.51.01.10.gdp     Per capita GDP growth                       GDP per capit…
 2 6.0.GDPpc_constant GDP per capita, PPP (constant 2011 interna… GDP per capit…
 3 NV.AGR.PCAP.KD.ZG  Real agricultural GDP per capita growth ra… The growth ra…
 4 NY.GDP.PCAP.CD     GDP per capita (current US$)                GDP per capit…
 5 NY.GDP.PCAP.CN     GDP per capita (current LCU)                GDP per capit…
 6 NY.GDP.PCAP.KD     GDP per capita (constant 2010 US$)          GDP per capit…
 7 NY.GDP.PCAP.KD.ZG  GDP per capita growth (annual %)            Annual percen…
 8 NY.GDP.PCAP.KN     GDP per capita (constant LCU)               GDP per capit…
 9 NY.GDP.PCAP.PP.CD  GDP per capita, PPP (current international… This indicato…
10 NY.GDP.PCAP.PP.KD  GDP per capita, PPP (constant 2017 interna… GDP per capit…
# ℹ 14 more rows
…
